^F:\WORKSPACE\EATHENA2013\EATHENA2013\SRC\MAP\ATCOMMAND.C
/c /I..\src\common /I..\3rdparty\msinttypes\include /I..\3rdparty\pcre\old\include /Zi /nologo /W3 /WX- /MP /O2 /Oy- /GL /D WIN32 /D NDEBUG /D PCRE_SUPPORT /D _VC80_UPGRADE=0x0710 /D _MBCS /Gm- /EHsc /MT /GS /fp:precise /Zc:wchar_t /Zc:forScope /Fo"map-server_sql\Release\\" /Fd"map-server_sql\Release\vc100.pdb" /Gd /TC /wd4018 /wd4100 /wd4800 /wd4996 /FIconfig.vc.h /analyze- /errorReport:prompt F:\WORKSPACE\EATHENA2013\EATHENA2013\SRC\MAP\ATCOMMAND.C
^F:\WORKSPACE\EATHENA2013\EATHENA2013\SRC\MAP\BATTLE.C
/c /I..\src\common /I..\3rdparty\msinttypes\include /I..\3rdparty\pcre\old\include /Zi /nologo /W3 /WX- /MP /O2 /Oy- /GL /D WIN32 /D NDEBUG /D PCRE_SUPPORT /D _VC80_UPGRADE=0x0710 /D _MBCS /Gm- /EHsc /MT /GS /fp:precise /Zc:wchar_t /Zc:forScope /Fo"map-server_sql\Release\\" /Fd"map-server_sql\Release\vc100.pdb" /Gd /TC /wd4018 /wd4100 /wd4800 /wd4996 /FIconfig.vc.h /analyze- /errorReport:prompt F:\WORKSPACE\EATHENA2013\EATHENA2013\SRC\MAP\BATTLE.C
^F:\WORKSPACE\EATHENA2013\EATHENA2013\SRC\MAP\BATTLEGROUND.C
/c /I..\src\common /I..\3rdparty\msinttypes\include /I..\3rdparty\pcre\old\include /Zi /nologo /W3 /WX- /MP /O2 /Oy- /GL /D WIN32 /D NDEBUG /D PCRE_SUPPORT /D _VC80_UPGRADE=0x0710 /D _MBCS /Gm- /EHsc /MT /GS /fp:precise /Zc:wchar_t /Zc:forScope /Fo"map-server_sql\Release\\" /Fd"map-server_sql\Release\vc100.pdb" /Gd /TC /wd4018 /wd4100 /wd4800 /wd4996 /FIconfig.vc.h /analyze- /errorReport:prompt F:\WORKSPACE\EATHENA2013\EATHENA2013\SRC\MAP\BATTLEGROUND.C
^F:\WORKSPACE\EATHENA2013\EATHENA2013\SRC\MAP\BUYINGSTORE.C
/c /I..\src\common /I..\3rdparty\msinttypes\include /I..\3rdparty\pcre\old\include /Zi /nologo /W3 /WX- /MP /O2 /Oy- /GL /D WIN32 /D NDEBUG /D PCRE_SUPPORT /D _VC80_UPGRADE=0x0710 /D _MBCS /Gm- /EHsc /MT /GS /fp:precise /Zc:wchar_t /Zc:forScope /Fo"map-server_sql\Release\\" /Fd"map-server_sql\Release\vc100.pdb" /Gd /TC /wd4018 /wd4100 /wd4800 /wd4996 /FIconfig.vc.h /analyze- /errorReport:prompt F:\WORKSPACE\EATHENA2013\EATHENA2013\SRC\MAP\BUYINGSTORE.C
^F:\WORKSPACE\EATHENA2013\EATHENA2013\SRC\MAP\CHAT.C
/c /I..\src\common /I..\3rdparty\msinttypes\include /I..\3rdparty\pcre\old\include /Zi /nologo /W3 /WX- /MP /O2 /Oy- /GL /D WIN32 /D NDEBUG /D PCRE_SUPPORT /D _VC80_UPGRADE=0x0710 /D _MBCS /Gm- /EHsc /MT /GS /fp:precise /Zc:wchar_t /Zc:forScope /Fo"map-server_sql\Release\\" /Fd"map-server_sql\Release\vc100.pdb" /Gd /TC /wd4018 /wd4100 /wd4800 /wd4996 /FIconfig.vc.h /analyze- /errorReport:prompt F:\WORKSPACE\EATHENA2013\EATHENA2013\SRC\MAP\CHAT.C
^F:\WORKSPACE\EATHENA2013\EATHENA2013\SRC\MAP\CHRIF.C
/c /I..\src\common /I..\3rdparty\msinttypes\include /I..\3rdparty\pcre\old\include /Zi /nologo /W3 /WX- /MP /O2 /Oy- /GL /D WIN32 /D NDEBUG /D PCRE_SUPPORT /D _VC80_UPGRADE=0x0710 /D _MBCS /Gm- /EHsc /MT /GS /fp:precise /Zc:wchar_t /Zc:forScope /Fo"map-server_sql\Release\\" /Fd"map-server_sql\Release\vc100.pdb" /Gd /TC /wd4018 /wd4100 /wd4800 /wd4996 /FIconfig.vc.h /analyze- /errorReport:prompt F:\WORKSPACE\EATHENA2013\EATHENA2013\SRC\MAP\CHRIF.C
^F:\WORKSPACE\EATHENA2013\EATHENA2013\SRC\MAP\CLIF.C
/c /I..\src\common /I..\3rdparty\msinttypes\include /I..\3rdparty\pcre\old\include /Zi /nologo /W3 /WX- /MP /O2 /Oy- /GL /D WIN32 /D NDEBUG /D PCRE_SUPPORT /D _VC80_UPGRADE=0x0710 /D _MBCS /Gm- /EHsc /MT /GS /fp:precise /Zc:wchar_t /Zc:forScope /Fo"map-server_sql\Release\\" /Fd"map-server_sql\Release\vc100.pdb" /Gd /TC /wd4018 /wd4100 /wd4800 /wd4996 /FIconfig.vc.h /analyze- /errorReport:prompt F:\WORKSPACE\EATHENA2013\EATHENA2013\SRC\MAP\CLIF.C
^F:\WORKSPACE\EATHENA2013\EATHENA2013\SRC\MAP\DATE.C
/c /I..\src\common /I..\3rdparty\msinttypes\include /I..\3rdparty\pcre\old\include /Zi /nologo /W3 /WX- /MP /O2 /Oy- /GL /D WIN32 /D NDEBUG /D PCRE_SUPPORT /D _VC80_UPGRADE=0x0710 /D _MBCS /Gm- /EHsc /MT /GS /fp:precise /Zc:wchar_t /Zc:forScope /Fo"map-server_sql\Release\\" /Fd"map-server_sql\Release\vc100.pdb" /Gd /TC /wd4018 /wd4100 /wd4800 /wd4996 /FIconfig.vc.h /analyze- /errorReport:prompt F:\WORKSPACE\EATHENA2013\EATHENA2013\SRC\MAP\DATE.C
^F:\WORKSPACE\EATHENA2013\EATHENA2013\SRC\MAP\DUEL.C
/c /I..\src\common /I..\3rdparty\msinttypes\include /I..\3rdparty\pcre\old\include /Zi /nologo /W3 /WX- /MP /O2 /Oy- /GL /D WIN32 /D NDEBUG /D PCRE_SUPPORT /D _VC80_UPGRADE=0x0710 /D _MBCS /Gm- /EHsc /MT /GS /fp:precise /Zc:wchar_t /Zc:forScope /Fo"map-server_sql\Release\\" /Fd"map-server_sql\Release\vc100.pdb" /Gd /TC /wd4018 /wd4100 /wd4800 /wd4996 /FIconfig.vc.h /analyze- /errorReport:prompt F:\WORKSPACE\EATHENA2013\EATHENA2013\SRC\MAP\DUEL.C
^F:\WORKSPACE\EATHENA2013\EATHENA2013\SRC\MAP\GUILD.C
/c /I..\src\common /I..\3rdparty\msinttypes\include /I..\3rdparty\pcre\old\include /Zi /nologo /W3 /WX- /MP /O2 /Oy- /GL /D WIN32 /D NDEBUG /D PCRE_SUPPORT /D _VC80_UPGRADE=0x0710 /D _MBCS /Gm- /EHsc /MT /GS /fp:precise /Zc:wchar_t /Zc:forScope /Fo"map-server_sql\Release\\" /Fd"map-server_sql\Release\vc100.pdb" /Gd /TC /wd4018 /wd4100 /wd4800 /wd4996 /FIconfig.vc.h /analyze- /errorReport:prompt F:\WORKSPACE\EATHENA2013\EATHENA2013\SRC\MAP\GUILD.C
^F:\WORKSPACE\EATHENA2013\EATHENA2013\SRC\MAP\GUILD_CASTLE.C
/c /I..\src\common /I..\3rdparty\msinttypes\include /I..\3rdparty\pcre\old\include /Zi /nologo /W3 /WX- /MP /O2 /Oy- /GL /D WIN32 /D NDEBUG /D PCRE_SUPPORT /D _VC80_UPGRADE=0x0710 /D _MBCS /Gm- /EHsc /MT /GS /fp:precise /Zc:wchar_t /Zc:forScope /Fo"map-server_sql\Release\\" /Fd"map-server_sql\Release\vc100.pdb" /Gd /TC /wd4018 /wd4100 /wd4800 /wd4996 /FIconfig.vc.h /analyze- /errorReport:prompt F:\WORKSPACE\EATHENA2013\EATHENA2013\SRC\MAP\GUILD_CASTLE.C
^F:\WORKSPACE\EATHENA2013\EATHENA2013\SRC\MAP\GUILD_EXPCACHE.C
/c /I..\src\common /I..\3rdparty\msinttypes\include /I..\3rdparty\pcre\old\include /Zi /nologo /W3 /WX- /MP /O2 /Oy- /GL /D WIN32 /D NDEBUG /D PCRE_SUPPORT /D _VC80_UPGRADE=0x0710 /D _MBCS /Gm- /EHsc /MT /GS /fp:precise /Zc:wchar_t /Zc:forScope /Fo"map-server_sql\Release\\" /Fd"map-server_sql\Release\vc100.pdb" /Gd /TC /wd4018 /wd4100 /wd4800 /wd4996 /FIconfig.vc.h /analyze- /errorReport:prompt F:\WORKSPACE\EATHENA2013\EATHENA2013\SRC\MAP\GUILD_EXPCACHE.C
^F:\WORKSPACE\EATHENA2013\EATHENA2013\SRC\MAP\HOMUNCULUS.C
/c /I..\src\common /I..\3rdparty\msinttypes\include /I..\3rdparty\pcre\old\include /Zi /nologo /W3 /WX- /MP /O2 /Oy- /GL /D WIN32 /D NDEBUG /D PCRE_SUPPORT /D _VC80_UPGRADE=0x0710 /D _MBCS /Gm- /EHsc /MT /GS /fp:precise /Zc:wchar_t /Zc:forScope /Fo"map-server_sql\Release\\" /Fd"map-server_sql\Release\vc100.pdb" /Gd /TC /wd4018 /wd4100 /wd4800 /wd4996 /FIconfig.vc.h /analyze- /errorReport:prompt F:\WORKSPACE\EATHENA2013\EATHENA2013\SRC\MAP\HOMUNCULUS.C
^F:\WORKSPACE\EATHENA2013\EATHENA2013\SRC\MAP\INSTANCE.C
/c /I..\src\common /I..\3rdparty\msinttypes\include /I..\3rdparty\pcre\old\include /Zi /nologo /W3 /WX- /MP /O2 /Oy- /GL /D WIN32 /D NDEBUG /D PCRE_SUPPORT /D _VC80_UPGRADE=0x0710 /D _MBCS /Gm- /EHsc /MT /GS /fp:precise /Zc:wchar_t /Zc:forScope /Fo"map-server_sql\Release\\" /Fd"map-server_sql\Release\vc100.pdb" /Gd /TC /wd4018 /wd4100 /wd4800 /wd4996 /FIconfig.vc.h /analyze- /errorReport:prompt F:\WORKSPACE\EATHENA2013\EATHENA2013\SRC\MAP\INSTANCE.C
^F:\WORKSPACE\EATHENA2013\EATHENA2013\SRC\MAP\INTIF.C
/c /I..\src\common /I..\3rdparty\msinttypes\include /I..\3rdparty\pcre\old\include /Zi /nologo /W3 /WX- /MP /O2 /Oy- /GL /D WIN32 /D NDEBUG /D PCRE_SUPPORT /D _VC80_UPGRADE=0x0710 /D _MBCS /Gm- /EHsc /MT /GS /fp:precise /Zc:wchar_t /Zc:forScope /Fo"map-server_sql\Release\\" /Fd"map-server_sql\Release\vc100.pdb" /Gd /TC /wd4018 /wd4100 /wd4800 /wd4996 /FIconfig.vc.h /analyze- /errorReport:prompt F:\WORKSPACE\EATHENA2013\EATHENA2013\SRC\MAP\INTIF.C
^F:\WORKSPACE\EATHENA2013\EATHENA2013\SRC\MAP\ITEMDB.C
/c /I..\src\common /I..\3rdparty\msinttypes\include /I..\3rdparty\pcre\old\include /Zi /nologo /W3 /WX- /MP /O2 /Oy- /GL /D WIN32 /D NDEBUG /D PCRE_SUPPORT /D _VC80_UPGRADE=0x0710 /D _MBCS /Gm- /EHsc /MT /GS /fp:precise /Zc:wchar_t /Zc:forScope /Fo"map-server_sql\Release\\" /Fd"map-server_sql\Release\vc100.pdb" /Gd /TC /wd4018 /wd4100 /wd4800 /wd4996 /FIconfig.vc.h /analyze- /errorReport:prompt F:\WORKSPACE\EATHENA2013\EATHENA2013\SRC\MAP\ITEMDB.C
^F:\WORKSPACE\EATHENA2013\EATHENA2013\SRC\MAP\LOG.C
/c /I..\src\common /I..\3rdparty\msinttypes\include /I..\3rdparty\pcre\old\include /Zi /nologo /W3 /WX- /MP /O2 /Oy- /GL /D WIN32 /D NDEBUG /D PCRE_SUPPORT /D _VC80_UPGRADE=0x0710 /D _MBCS /Gm- /EHsc /MT /GS /fp:precise /Zc:wchar_t /Zc:forScope /Fo"map-server_sql\Release\\" /Fd"map-server_sql\Release\vc100.pdb" /Gd /TC /wd4018 /wd4100 /wd4800 /wd4996 /FIconfig.vc.h /analyze- /errorReport:prompt F:\WORKSPACE\EATHENA2013\EATHENA2013\SRC\MAP\LOG.C
^F:\WORKSPACE\EATHENA2013\EATHENA2013\SRC\MAP\MAIL.C
/c /I..\src\common /I..\3rdparty\msinttypes\include /I..\3rdparty\pcre\old\include /Zi /nologo /W3 /WX- /MP /O2 /Oy- /GL /D WIN32 /D NDEBUG /D PCRE_SUPPORT /D _VC80_UPGRADE=0x0710 /D _MBCS /Gm- /EHsc /MT /GS /fp:precise /Zc:wchar_t /Zc:forScope /Fo"map-server_sql\Release\\" /Fd"map-server_sql\Release\vc100.pdb" /Gd /TC /wd4018 /wd4100 /wd4800 /wd4996 /FIconfig.vc.h /analyze- /errorReport:prompt F:\WORKSPACE\EATHENA2013\EATHENA2013\SRC\MAP\MAIL.C
^F:\WORKSPACE\EATHENA2013\EATHENA2013\SRC\MAP\MAP.C
/c /I..\src\common /I..\3rdparty\msinttypes\include /I..\3rdparty\pcre\old\include /Zi /nologo /W3 /WX- /MP /O2 /Oy- /GL /D WIN32 /D NDEBUG /D PCRE_SUPPORT /D _VC80_UPGRADE=0x0710 /D _MBCS /Gm- /EHsc /MT /GS /fp:precise /Zc:wchar_t /Zc:forScope /Fo"map-server_sql\Release\\" /Fd"map-server_sql\Release\vc100.pdb" /Gd /TC /wd4018 /wd4100 /wd4800 /wd4996 /FIconfig.vc.h /analyze- /errorReport:prompt F:\WORKSPACE\EATHENA2013\EATHENA2013\SRC\MAP\MAP.C
^F:\WORKSPACE\EATHENA2013\EATHENA2013\SRC\MAP\MAPREG_SQL.C
/c /I..\src\common /I..\3rdparty\msinttypes\include /I..\3rdparty\pcre\old\include /Zi /nologo /W3 /WX- /MP /O2 /Oy- /GL /D WIN32 /D NDEBUG /D PCRE_SUPPORT /D _VC80_UPGRADE=0x0710 /D _MBCS /Gm- /EHsc /MT /GS /fp:precise /Zc:wchar_t /Zc:forScope /Fo"map-server_sql\Release\\" /Fd"map-server_sql\Release\vc100.pdb" /Gd /TC /wd4018 /wd4100 /wd4800 /wd4996 /FIconfig.vc.h /analyze- /errorReport:prompt F:\WORKSPACE\EATHENA2013\EATHENA2013\SRC\MAP\MAPREG_SQL.C
^F:\WORKSPACE\EATHENA2013\EATHENA2013\SRC\MAP\MERCENARY.C
/c /I..\src\common /I..\3rdparty\msinttypes\include /I..\3rdparty\pcre\old\include /Zi /nologo /W3 /WX- /MP /O2 /Oy- /GL /D WIN32 /D NDEBUG /D PCRE_SUPPORT /D _VC80_UPGRADE=0x0710 /D _MBCS /Gm- /EHsc /MT /GS /fp:precise /Zc:wchar_t /Zc:forScope /Fo"map-server_sql\Release\\" /Fd"map-server_sql\Release\vc100.pdb" /Gd /TC /wd4018 /wd4100 /wd4800 /wd4996 /FIconfig.vc.h /analyze- /errorReport:prompt F:\WORKSPACE\EATHENA2013\EATHENA2013\SRC\MAP\MERCENARY.C
^F:\WORKSPACE\EATHENA2013\EATHENA2013\SRC\MAP\MOB.C
/c /I..\src\common /I..\3rdparty\msinttypes\include /I..\3rdparty\pcre\old\include /Zi /nologo /W3 /WX- /MP /O2 /Oy- /GL /D WIN32 /D NDEBUG /D PCRE_SUPPORT /D _VC80_UPGRADE=0x0710 /D _MBCS /Gm- /EHsc /MT /GS /fp:precise /Zc:wchar_t /Zc:forScope /Fo"map-server_sql\Release\\" /Fd"map-server_sql\Release\vc100.pdb" /Gd /TC /wd4018 /wd4100 /wd4800 /wd4996 /FIconfig.vc.h /analyze- /errorReport:prompt F:\WORKSPACE\EATHENA2013\EATHENA2013\SRC\MAP\MOB.C
^F:\WORKSPACE\EATHENA2013\EATHENA2013\SRC\MAP\NPC.C
/c /I..\src\common /I..\3rdparty\msinttypes\include /I..\3rdparty\pcre\old\include /Zi /nologo /W3 /WX- /MP /O2 /Oy- /GL /D WIN32 /D NDEBUG /D PCRE_SUPPORT /D _VC80_UPGRADE=0x0710 /D _MBCS /Gm- /EHsc /MT /GS /fp:precise /Zc:wchar_t /Zc:forScope /Fo"map-server_sql\Release\\" /Fd"map-server_sql\Release\vc100.pdb" /Gd /TC /wd4018 /wd4100 /wd4800 /wd4996 /FIconfig.vc.h /analyze- /errorReport:prompt F:\WORKSPACE\EATHENA2013\EATHENA2013\SRC\MAP\NPC.C
^F:\WORKSPACE\EATHENA2013\EATHENA2013\SRC\MAP\NPC_CHAT.C
/c /I..\src\common /I..\3rdparty\msinttypes\include /I..\3rdparty\pcre\old\include /Zi /nologo /W3 /WX- /MP /O2 /Oy- /GL /D WIN32 /D NDEBUG /D PCRE_SUPPORT /D _VC80_UPGRADE=0x0710 /D _MBCS /Gm- /EHsc /MT /GS /fp:precise /Zc:wchar_t /Zc:forScope /Fo"map-server_sql\Release\\" /Fd"map-server_sql\Release\vc100.pdb" /Gd /TC /wd4018 /wd4100 /wd4800 /wd4996 /FIconfig.vc.h /analyze- /errorReport:prompt F:\WORKSPACE\EATHENA2013\EATHENA2013\SRC\MAP\NPC_CHAT.C
^F:\WORKSPACE\EATHENA2013\EATHENA2013\SRC\MAP\PARTY.C
/c /I..\src\common /I..\3rdparty\msinttypes\include /I..\3rdparty\pcre\old\include /Zi /nologo /W3 /WX- /MP /O2 /Oy- /GL /D WIN32 /D NDEBUG /D PCRE_SUPPORT /D _VC80_UPGRADE=0x0710 /D _MBCS /Gm- /EHsc /MT /GS /fp:precise /Zc:wchar_t /Zc:forScope /Fo"map-server_sql\Release\\" /Fd"map-server_sql\Release\vc100.pdb" /Gd /TC /wd4018 /wd4100 /wd4800 /wd4996 /FIconfig.vc.h /analyze- /errorReport:prompt F:\WORKSPACE\EATHENA2013\EATHENA2013\SRC\MAP\PARTY.C
^F:\WORKSPACE\EATHENA2013\EATHENA2013\SRC\MAP\PATH.C
/c /I..\src\common /I..\3rdparty\msinttypes\include /I..\3rdparty\pcre\old\include /Zi /nologo /W3 /WX- /MP /O2 /Oy- /GL /D WIN32 /D NDEBUG /D PCRE_SUPPORT /D _VC80_UPGRADE=0x0710 /D _MBCS /Gm- /EHsc /MT /GS /fp:precise /Zc:wchar_t /Zc:forScope /Fo"map-server_sql\Release\\" /Fd"map-server_sql\Release\vc100.pdb" /Gd /TC /wd4018 /wd4100 /wd4800 /wd4996 /FIconfig.vc.h /analyze- /errorReport:prompt F:\WORKSPACE\EATHENA2013\EATHENA2013\SRC\MAP\PATH.C
^F:\WORKSPACE\EATHENA2013\EATHENA2013\SRC\MAP\PC.C
/c /I..\src\common /I..\3rdparty\msinttypes\include /I..\3rdparty\pcre\old\include /Zi /nologo /W3 /WX- /MP /O2 /Oy- /GL /D WIN32 /D NDEBUG /D PCRE_SUPPORT /D _VC80_UPGRADE=0x0710 /D _MBCS /Gm- /EHsc /MT /GS /fp:precise /Zc:wchar_t /Zc:forScope /Fo"map-server_sql\Release\\" /Fd"map-server_sql\Release\vc100.pdb" /Gd /TC /wd4018 /wd4100 /wd4800 /wd4996 /FIconfig.vc.h /analyze- /errorReport:prompt F:\WORKSPACE\EATHENA2013\EATHENA2013\SRC\MAP\PC.C
^F:\WORKSPACE\EATHENA2013\EATHENA2013\SRC\MAP\PET.C
/c /I..\src\common /I..\3rdparty\msinttypes\include /I..\3rdparty\pcre\old\include /Zi /nologo /W3 /WX- /MP /O2 /Oy- /GL /D WIN32 /D NDEBUG /D PCRE_SUPPORT /D _VC80_UPGRADE=0x0710 /D _MBCS /Gm- /EHsc /MT /GS /fp:precise /Zc:wchar_t /Zc:forScope /Fo"map-server_sql\Release\\" /Fd"map-server_sql\Release\vc100.pdb" /Gd /TC /wd4018 /wd4100 /wd4800 /wd4996 /FIconfig.vc.h /analyze- /errorReport:prompt F:\WORKSPACE\EATHENA2013\EATHENA2013\SRC\MAP\PET.C
^F:\WORKSPACE\EATHENA2013\EATHENA2013\SRC\MAP\QUEST.C
/c /I..\src\common /I..\3rdparty\msinttypes\include /I..\3rdparty\pcre\old\include /Zi /nologo /W3 /WX- /MP /O2 /Oy- /GL /D WIN32 /D NDEBUG /D PCRE_SUPPORT /D _VC80_UPGRADE=0x0710 /D _MBCS /Gm- /EHsc /MT /GS /fp:precise /Zc:wchar_t /Zc:forScope /Fo"map-server_sql\Release\\" /Fd"map-server_sql\Release\vc100.pdb" /Gd /TC /wd4018 /wd4100 /wd4800 /wd4996 /FIconfig.vc.h /analyze- /errorReport:prompt F:\WORKSPACE\EATHENA2013\EATHENA2013\SRC\MAP\QUEST.C
^F:\WORKSPACE\EATHENA2013\EATHENA2013\SRC\MAP\SCRIPT.C
/c /I..\src\common /I..\3rdparty\msinttypes\include /I..\3rdparty\pcre\old\include /Zi /nologo /W3 /WX- /MP /O2 /Oy- /GL /D WIN32 /D NDEBUG /D PCRE_SUPPORT /D _VC80_UPGRADE=0x0710 /D _MBCS /Gm- /EHsc /MT /GS /fp:precise /Zc:wchar_t /Zc:forScope /Fo"map-server_sql\Release\\" /Fd"map-server_sql\Release\vc100.pdb" /Gd /TC /wd4018 /wd4100 /wd4800 /wd4996 /FIconfig.vc.h /analyze- /errorReport:prompt F:\WORKSPACE\EATHENA2013\EATHENA2013\SRC\MAP\SCRIPT.C
^F:\WORKSPACE\EATHENA2013\EATHENA2013\SRC\MAP\SEARCHSTORE.C
/c /I..\src\common /I..\3rdparty\msinttypes\include /I..\3rdparty\pcre\old\include /Zi /nologo /W3 /WX- /MP /O2 /Oy- /GL /D WIN32 /D NDEBUG /D PCRE_SUPPORT /D _VC80_UPGRADE=0x0710 /D _MBCS /Gm- /EHsc /MT /GS /fp:precise /Zc:wchar_t /Zc:forScope /Fo"map-server_sql\Release\\" /Fd"map-server_sql\Release\vc100.pdb" /Gd /TC /wd4018 /wd4100 /wd4800 /wd4996 /FIconfig.vc.h /analyze- /errorReport:prompt F:\WORKSPACE\EATHENA2013\EATHENA2013\SRC\MAP\SEARCHSTORE.C
^F:\WORKSPACE\EATHENA2013\EATHENA2013\SRC\MAP\SKILL.C
/c /I..\src\common /I..\3rdparty\msinttypes\include /I..\3rdparty\pcre\old\include /Zi /nologo /W3 /WX- /MP /O2 /Oy- /GL /D WIN32 /D NDEBUG /D PCRE_SUPPORT /D _VC80_UPGRADE=0x0710 /D _MBCS /Gm- /EHsc /MT /GS /fp:precise /Zc:wchar_t /Zc:forScope /Fo"map-server_sql\Release\\" /Fd"map-server_sql\Release\vc100.pdb" /Gd /TC /wd4018 /wd4100 /wd4800 /wd4996 /FIconfig.vc.h /analyze- /errorReport:prompt F:\WORKSPACE\EATHENA2013\EATHENA2013\SRC\MAP\SKILL.C
^F:\WORKSPACE\EATHENA2013\EATHENA2013\SRC\MAP\STATUS.C
/c /I..\src\common /I..\3rdparty\msinttypes\include /I..\3rdparty\pcre\old\include /Zi /nologo /W3 /WX- /MP /O2 /Oy- /GL /D WIN32 /D NDEBUG /D PCRE_SUPPORT /D _VC80_UPGRADE=0x0710 /D _MBCS /Gm- /EHsc /MT /GS /fp:precise /Zc:wchar_t /Zc:forScope /Fo"map-server_sql\Release\\" /Fd"map-server_sql\Release\vc100.pdb" /Gd /TC /wd4018 /wd4100 /wd4800 /wd4996 /FIconfig.vc.h /analyze- /errorReport:prompt F:\WORKSPACE\EATHENA2013\EATHENA2013\SRC\MAP\STATUS.C
^F:\WORKSPACE\EATHENA2013\EATHENA2013\SRC\MAP\STORAGE.C
/c /I..\src\common /I..\3rdparty\msinttypes\include /I..\3rdparty\pcre\old\include /Zi /nologo /W3 /WX- /MP /O2 /Oy- /GL /D WIN32 /D NDEBUG /D PCRE_SUPPORT /D _VC80_UPGRADE=0x0710 /D _MBCS /Gm- /EHsc /MT /GS /fp:precise /Zc:wchar_t /Zc:forScope /Fo"map-server_sql\Release\\" /Fd"map-server_sql\Release\vc100.pdb" /Gd /TC /wd4018 /wd4100 /wd4800 /wd4996 /FIconfig.vc.h /analyze- /errorReport:prompt F:\WORKSPACE\EATHENA2013\EATHENA2013\SRC\MAP\STORAGE.C
^F:\WORKSPACE\EATHENA2013\EATHENA2013\SRC\MAP\TRADE.C
/c /I..\src\common /I..\3rdparty\msinttypes\include /I..\3rdparty\pcre\old\include /Zi /nologo /W3 /WX- /MP /O2 /Oy- /GL /D WIN32 /D NDEBUG /D PCRE_SUPPORT /D _VC80_UPGRADE=0x0710 /D _MBCS /Gm- /EHsc /MT /GS /fp:precise /Zc:wchar_t /Zc:forScope /Fo"map-server_sql\Release\\" /Fd"map-server_sql\Release\vc100.pdb" /Gd /TC /wd4018 /wd4100 /wd4800 /wd4996 /FIconfig.vc.h /analyze- /errorReport:prompt F:\WORKSPACE\EATHENA2013\EATHENA2013\SRC\MAP\TRADE.C
^F:\WORKSPACE\EATHENA2013\EATHENA2013\SRC\MAP\UNIT.C
/c /I..\src\common /I..\3rdparty\msinttypes\include /I..\3rdparty\pcre\old\include /Zi /nologo /W3 /WX- /MP /O2 /Oy- /GL /D WIN32 /D NDEBUG /D PCRE_SUPPORT /D _VC80_UPGRADE=0x0710 /D _MBCS /Gm- /EHsc /MT /GS /fp:precise /Zc:wchar_t /Zc:forScope /Fo"map-server_sql\Release\\" /Fd"map-server_sql\Release\vc100.pdb" /Gd /TC /wd4018 /wd4100 /wd4800 /wd4996 /FIconfig.vc.h /analyze- /errorReport:prompt F:\WORKSPACE\EATHENA2013\EATHENA2013\SRC\MAP\UNIT.C
^F:\WORKSPACE\EATHENA2013\EATHENA2013\SRC\MAP\VENDING.C
/c /I..\src\common /I..\3rdparty\msinttypes\include /I..\3rdparty\pcre\old\include /Zi /nologo /W3 /WX- /MP /O2 /Oy- /GL /D WIN32 /D NDEBUG /D PCRE_SUPPORT /D _VC80_UPGRADE=0x0710 /D _MBCS /Gm- /EHsc /MT /GS /fp:precise /Zc:wchar_t /Zc:forScope /Fo"map-server_sql\Release\\" /Fd"map-server_sql\Release\vc100.pdb" /Gd /TC /wd4018 /wd4100 /wd4800 /wd4996 /FIconfig.vc.h /analyze- /errorReport:prompt F:\WORKSPACE\EATHENA2013\EATHENA2013\SRC\MAP\VENDING.C
