^F:\WORKSPACE\EATHENA2013\EATHENA2013\VCPROJ-10\COMMON\RELEASE\COMMON.LIB|F:\WORKSPACE\EATHENA2013\EATHENA2013\VCPROJ-10\COMMON_SQL\RELEASE\COMMON_SQL.LIB|F:\WORKSPACE\EATHENA2013\EATHENA2013\VCPROJ-10\MAP-SERVER_SQL\RELEASE\ATCOMMAND.OBJ|F:\WORKSPACE\EATHENA2013\EATHENA2013\VCPROJ-10\MAP-SERVER_SQL\RELEASE\BATTLE.OBJ|F:\WORKSPACE\EATHENA2013\EATHENA2013\VCPROJ-10\MAP-SERVER_SQL\RELEASE\BATTLEGROUND.OBJ|F:\WORKSPACE\EATHENA2013\EATHENA2013\VCPROJ-10\MAP-SERVER_SQL\RELEASE\BUYINGSTORE.OBJ|F:\WORKSPACE\EATHENA2013\EATHENA2013\VCPROJ-10\MAP-SERVER_SQL\RELEASE\CHAT.OBJ|F:\WORKSPACE\EATHENA2013\EATHENA2013\VCPROJ-10\MAP-SERVER_SQL\RELEASE\CHRIF.OBJ|F:\WORKSPACE\EATHENA2013\EATHENA2013\VCPROJ-10\MAP-SERVER_SQL\RELEASE\CLIF.OBJ|F:\WORKSPACE\EATHENA2013\EATHENA2013\VCPROJ-10\MAP-SERVER_SQL\RELEASE\DATE.OBJ|F:\WORKSPACE\EATHENA2013\EATHENA2013\VCPROJ-10\MAP-SERVER_SQL\RELEASE\DUEL.OBJ|F:\WORKSPACE\EATHENA2013\EATHENA2013\VCPROJ-10\MAP-SERVER_SQL\RELEASE\GUILD.OBJ|F:\WORKSPACE\EATHENA2013\EATHENA2013\VCPROJ-10\MAP-SERVER_SQL\RELEASE\GUILD_CASTLE.OBJ|F:\WORKSPACE\EATHENA2013\EATHENA2013\VCPROJ-10\MAP-SERVER_SQL\RELEASE\GUILD_EXPCACHE.OBJ|F:\WORKSPACE\EATHENA2013\EATHENA2013\VCPROJ-10\MAP-SERVER_SQL\RELEASE\HOMUNCULUS.OBJ|F:\WORKSPACE\EATHENA2013\EATHENA2013\VCPROJ-10\MAP-SERVER_SQL\RELEASE\INSTANCE.OBJ|F:\WORKSPACE\EATHENA2013\EATHENA2013\VCPROJ-10\MAP-SERVER_SQL\RELEASE\INTIF.OBJ|F:\WORKSPACE\EATHENA2013\EATHENA2013\VCPROJ-10\MAP-SERVER_SQL\RELEASE\ITEMDB.OBJ|F:\WORKSPACE\EATHENA2013\EATHENA2013\VCPROJ-10\MAP-SERVER_SQL\RELEASE\LOG.OBJ|F:\WORKSPACE\EATHENA2013\EATHENA2013\VCPROJ-10\MAP-SERVER_SQL\RELEASE\MAIL.OBJ|F:\WORKSPACE\EATHENA2013\EATHENA2013\VCPROJ-10\MAP-SERVER_SQL\RELEASE\MAP.OBJ|F:\WORKSPACE\EATHENA2013\EATHENA2013\VCPROJ-10\MAP-SERVER_SQL\RELEASE\MAPREG_SQL.OBJ|F:\WORKSPACE\EATHENA2013\EATHENA2013\VCPROJ-10\MAP-SERVER_SQL\RELEASE\MERCENARY.OBJ|F:\WORKSPACE\EATHENA2013\EATHENA2013\VCPROJ-10\MAP-SERVER_SQL\RELEASE\MOB.OBJ|F:\WORKSPACE\EATHENA2013\EATHENA2013\VCPROJ-10\MAP-SERVER_SQL\RELEASE\NPC.OBJ|F:\WORKSPACE\EATHENA2013\EATHENA2013\VCPROJ-10\MAP-SERVER_SQL\RELEASE\NPC_CHAT.OBJ|F:\WORKSPACE\EATHENA2013\EATHENA2013\VCPROJ-10\MAP-SERVER_SQL\RELEASE\PARTY.OBJ|F:\WORKSPACE\EATHENA2013\EATHENA2013\VCPROJ-10\MAP-SERVER_SQL\RELEASE\PATH.OBJ|F:\WORKSPACE\EATHENA2013\EATHENA2013\VCPROJ-10\MAP-SERVER_SQL\RELEASE\PC.OBJ|F:\WORKSPACE\EATHENA2013\EATHENA2013\VCPROJ-10\MAP-SERVER_SQL\RELEASE\PET.OBJ|F:\WORKSPACE\EATHENA2013\EATHENA2013\VCPROJ-10\MAP-SERVER_SQL\RELEASE\QUEST.OBJ|F:\WORKSPACE\EATHENA2013\EATHENA2013\VCPROJ-10\MAP-SERVER_SQL\RELEASE\SCRIPT.OBJ|F:\WORKSPACE\EATHENA2013\EATHENA2013\VCPROJ-10\MAP-SERVER_SQL\RELEASE\SEARCHSTORE.OBJ|F:\WORKSPACE\EATHENA2013\EATHENA2013\VCPROJ-10\MAP-SERVER_SQL\RELEASE\SKILL.OBJ|F:\WORKSPACE\EATHENA2013\EATHENA2013\VCPROJ-10\MAP-SERVER_SQL\RELEASE\STATUS.OBJ|F:\WORKSPACE\EATHENA2013\EATHENA2013\VCPROJ-10\MAP-SERVER_SQL\RELEASE\STORAGE.OBJ|F:\WORKSPACE\EATHENA2013\EATHENA2013\VCPROJ-10\MAP-SERVER_SQL\RELEASE\TRADE.OBJ|F:\WORKSPACE\EATHENA2013\EATHENA2013\VCPROJ-10\MAP-SERVER_SQL\RELEASE\UNIT.OBJ|F:\WORKSPACE\EATHENA2013\EATHENA2013\VCPROJ-10\MAP-SERVER_SQL\RELEASE\VENDING.OBJ
/ERRORREPORT:PROMPT /OUT:"..\map-server_sql.exe" /INCREMENTAL:NO /NOLOGO /LIBPATH:..\3rdparty\pcre\old\lib libcmt.lib oldnames.lib pcre.lib kernel32.lib user32.lib gdi32.lib winspool.lib comdlg32.lib advapi32.lib shell32.lib ole32.lib oleaut32.lib uuid.lib odbc32.lib odbccp32.lib /NODEFAULTLIB /MANIFEST /ManifestFile:"map-server_sql\Release\map-server_sql.exe.intermediate.manifest" /MANIFESTUAC:"level='asInvoker' uiAccess='false'" /DEBUG /PDB:"..\map-server_sql.pdb" /SUBSYSTEM:CONSOLE /OPT:REF /OPT:ICF /LTCG /TLBID:1 /DYNAMICBASE:NO /NXCOMPAT /IMPLIB:"..\map-server_sql.lib" /MACHINE:X86 "map-server_sql\Release\atcommand.obj"
"map-server_sql\Release\battle.obj"
"map-server_sql\Release\battleground.obj"
"map-server_sql\Release\buyingstore.obj"
"map-server_sql\Release\chat.obj"
"map-server_sql\Release\chrif.obj"
"map-server_sql\Release\clif.obj"
"map-server_sql\Release\date.obj"
"map-server_sql\Release\duel.obj"
"map-server_sql\Release\guild.obj"
"map-server_sql\Release\guild_castle.obj"
"map-server_sql\Release\guild_expcache.obj"
"map-server_sql\Release\homunculus.obj"
"map-server_sql\Release\instance.obj"
"map-server_sql\Release\intif.obj"
"map-server_sql\Release\itemdb.obj"
"map-server_sql\Release\log.obj"
"map-server_sql\Release\mail.obj"
"map-server_sql\Release\map.obj"
"map-server_sql\Release\mapreg_sql.obj"
"map-server_sql\Release\mercenary.obj"
"map-server_sql\Release\mob.obj"
"map-server_sql\Release\npc.obj"
"map-server_sql\Release\npc_chat.obj"
"map-server_sql\Release\party.obj"
"map-server_sql\Release\path.obj"
"map-server_sql\Release\pc.obj"
"map-server_sql\Release\pet.obj"
"map-server_sql\Release\quest.obj"
"map-server_sql\Release\script.obj"
"map-server_sql\Release\searchstore.obj"
"map-server_sql\Release\skill.obj"
"map-server_sql\Release\status.obj"
"map-server_sql\Release\storage.obj"
"map-server_sql\Release\trade.obj"
"map-server_sql\Release\unit.obj"
"map-server_sql\Release\vending.obj"
"F:\workspace\eathena2013\eathena2013\vcproj-10\common\Release\common.lib"
"F:\workspace\eathena2013\eathena2013\vcproj-10\common_sql\Release\common_sql.lib"
