^F:\WORKSPACE\EATHENA2013\EATHENA2013\VCPROJ-10\COMMON\RELEASE\COMMON.LIB|F:\WORKSPACE\EATHENA2013\EATHENA2013\VCPROJ-10\MAP-SERVER_TXT\RELEASE\ATCOMMAND.OBJ|F:\WORKSPACE\EATHENA2013\EATHENA2013\VCPROJ-10\MAP-SERVER_TXT\RELEASE\BATTLE.OBJ|F:\WORKSPACE\EATHENA2013\EATHENA2013\VCPROJ-10\MAP-SERVER_TXT\RELEASE\BATTLEGROUND.OBJ|F:\WORKSPACE\EATHENA2013\EATHENA2013\VCPROJ-10\MAP-SERVER_TXT\RELEASE\BUYINGSTORE.OBJ|F:\WORKSPACE\EATHENA2013\EATHENA2013\VCPROJ-10\MAP-SERVER_TXT\RELEASE\CHAT.OBJ|F:\WORKSPACE\EATHENA2013\EATHENA2013\VCPROJ-10\MAP-SERVER_TXT\RELEASE\CHRIF.OBJ|F:\WORKSPACE\EATHENA2013\EATHENA2013\VCPROJ-10\MAP-SERVER_TXT\RELEASE\CLIF.OBJ|F:\WORKSPACE\EATHENA2013\EATHENA2013\VCPROJ-10\MAP-SERVER_TXT\RELEASE\DATE.OBJ|F:\WORKSPACE\EATHENA2013\EATHENA2013\VCPROJ-10\MAP-SERVER_TXT\RELEASE\DUEL.OBJ|F:\WORKSPACE\EATHENA2013\EATHENA2013\VCPROJ-10\MAP-SERVER_TXT\RELEASE\GUILD.OBJ|F:\WORKSPACE\EATHENA2013\EATHENA2013\VCPROJ-10\MAP-SERVER_TXT\RELEASE\GUILD_CASTLE.OBJ|F:\WORKSPACE\EATHENA2013\EATHENA2013\VCPROJ-10\MAP-SERVER_TXT\RELEASE\GUILD_EXPCACHE.OBJ|F:\WORKSPACE\EATHENA2013\EATHENA2013\VCPROJ-10\MAP-SERVER_TXT\RELEASE\HOMUNCULUS.OBJ|F:\WORKSPACE\EATHENA2013\EATHENA2013\VCPROJ-10\MAP-SERVER_TXT\RELEASE\INSTANCE.OBJ|F:\WORKSPACE\EATHENA2013\EATHENA2013\VCPROJ-10\MAP-SERVER_TXT\RELEASE\INTIF.OBJ|F:\WORKSPACE\EATHENA2013\EATHENA2013\VCPROJ-10\MAP-SERVER_TXT\RELEASE\ITEMDB.OBJ|F:\WORKSPACE\EATHENA2013\EATHENA2013\VCPROJ-10\MAP-SERVER_TXT\RELEASE\LOG.OBJ|F:\WORKSPACE\EATHENA2013\EATHENA2013\VCPROJ-10\MAP-SERVER_TXT\RELEASE\MAIL.OBJ|F:\WORKSPACE\EATHENA2013\EATHENA2013\VCPROJ-10\MAP-SERVER_TXT\RELEASE\MAP.OBJ|F:\WORKSPACE\EATHENA2013\EATHENA2013\VCPROJ-10\MAP-SERVER_TXT\RELEASE\MAPREG_TXT.OBJ|F:\WORKSPACE\EATHENA2013\EATHENA2013\VCPROJ-10\MAP-SERVER_TXT\RELEASE\MERCENARY.OBJ|F:\WORKSPACE\EATHENA2013\EATHENA2013\VCPROJ-10\MAP-SERVER_TXT\RELEASE\MOB.OBJ|F:\WORKSPACE\EATHENA2013\EATHENA2013\VCPROJ-10\MAP-SERVER_TXT\RELEASE\NPC.OBJ|F:\WORKSPACE\EATHENA2013\EATHENA2013\VCPROJ-10\MAP-SERVER_TXT\RELEASE\NPC_CHAT.OBJ|F:\WORKSPACE\EATHENA2013\EATHENA2013\VCPROJ-10\MAP-SERVER_TXT\RELEASE\PARTY.OBJ|F:\WORKSPACE\EATHENA2013\EATHENA2013\VCPROJ-10\MAP-SERVER_TXT\RELEASE\PATH.OBJ|F:\WORKSPACE\EATHENA2013\EATHENA2013\VCPROJ-10\MAP-SERVER_TXT\RELEASE\PC.OBJ|F:\WORKSPACE\EATHENA2013\EATHENA2013\VCPROJ-10\MAP-SERVER_TXT\RELEASE\PET.OBJ|F:\WORKSPACE\EATHENA2013\EATHENA2013\VCPROJ-10\MAP-SERVER_TXT\RELEASE\QUEST.OBJ|F:\WORKSPACE\EATHENA2013\EATHENA2013\VCPROJ-10\MAP-SERVER_TXT\RELEASE\SCRIPT.OBJ|F:\WORKSPACE\EATHENA2013\EATHENA2013\VCPROJ-10\MAP-SERVER_TXT\RELEASE\SEARCHSTORE.OBJ|F:\WORKSPACE\EATHENA2013\EATHENA2013\VCPROJ-10\MAP-SERVER_TXT\RELEASE\SKILL.OBJ|F:\WORKSPACE\EATHENA2013\EATHENA2013\VCPROJ-10\MAP-SERVER_TXT\RELEASE\STATUS.OBJ|F:\WORKSPACE\EATHENA2013\EATHENA2013\VCPROJ-10\MAP-SERVER_TXT\RELEASE\STORAGE.OBJ|F:\WORKSPACE\EATHENA2013\EATHENA2013\VCPROJ-10\MAP-SERVER_TXT\RELEASE\TRADE.OBJ|F:\WORKSPACE\EATHENA2013\EATHENA2013\VCPROJ-10\MAP-SERVER_TXT\RELEASE\UNIT.OBJ|F:\WORKSPACE\EATHENA2013\EATHENA2013\VCPROJ-10\MAP-SERVER_TXT\RELEASE\VENDING.OBJ
D:\PROGRAM FILES (X86)\MICROSOFT VISUAL STUDIO 10.0\VC\LIB\LIBCMT.LIB
D:\PROGRAM FILES (X86)\MICROSOFT VISUAL STUDIO 10.0\VC\LIB\OLDNAMES.LIB
F:\WORKSPACE\EATHENA2013\EATHENA2013\3RDPARTY\PCRE\OLD\LIB\PCRE.LIB
C:\PROGRAM FILES (X86)\MICROSOFT SDKS\WINDOWS\V7.0A\LIB\KERNEL32.LIB
C:\PROGRAM FILES (X86)\MICROSOFT SDKS\WINDOWS\V7.0A\LIB\USER32.LIB
C:\PROGRAM FILES (X86)\MICROSOFT SDKS\WINDOWS\V7.0A\LIB\GDI32.LIB
C:\PROGRAM FILES (X86)\MICROSOFT SDKS\WINDOWS\V7.0A\LIB\WINSPOOL.LIB
C:\PROGRAM FILES (X86)\MICROSOFT SDKS\WINDOWS\V7.0A\LIB\COMDLG32.LIB
C:\PROGRAM FILES (X86)\MICROSOFT SDKS\WINDOWS\V7.0A\LIB\ADVAPI32.LIB
C:\PROGRAM FILES (X86)\MICROSOFT SDKS\WINDOWS\V7.0A\LIB\SHELL32.LIB
C:\PROGRAM FILES (X86)\MICROSOFT SDKS\WINDOWS\V7.0A\LIB\OLE32.LIB
C:\PROGRAM FILES (X86)\MICROSOFT SDKS\WINDOWS\V7.0A\LIB\OLEAUT32.LIB
C:\PROGRAM FILES (X86)\MICROSOFT SDKS\WINDOWS\V7.0A\LIB\UUID.LIB
C:\PROGRAM FILES (X86)\MICROSOFT SDKS\WINDOWS\V7.0A\LIB\ODBC32.LIB
C:\PROGRAM FILES (X86)\MICROSOFT SDKS\WINDOWS\V7.0A\LIB\ODBCCP32.LIB
F:\WORKSPACE\EATHENA2013\EATHENA2013\VCPROJ-10\MAP-SERVER_TXT\RELEASE\ATCOMMAND.OBJ
F:\WORKSPACE\EATHENA2013\EATHENA2013\VCPROJ-10\MAP-SERVER_TXT\RELEASE\BATTLE.OBJ
F:\WORKSPACE\EATHENA2013\EATHENA2013\VCPROJ-10\MAP-SERVER_TXT\RELEASE\BATTLEGROUND.OBJ
F:\WORKSPACE\EATHENA2013\EATHENA2013\VCPROJ-10\MAP-SERVER_TXT\RELEASE\BUYINGSTORE.OBJ
F:\WORKSPACE\EATHENA2013\EATHENA2013\VCPROJ-10\MAP-SERVER_TXT\RELEASE\CHAT.OBJ
F:\WORKSPACE\EATHENA2013\EATHENA2013\VCPROJ-10\MAP-SERVER_TXT\RELEASE\CHRIF.OBJ
F:\WORKSPACE\EATHENA2013\EATHENA2013\VCPROJ-10\MAP-SERVER_TXT\RELEASE\CLIF.OBJ
F:\WORKSPACE\EATHENA2013\EATHENA2013\VCPROJ-10\MAP-SERVER_TXT\RELEASE\DATE.OBJ
F:\WORKSPACE\EATHENA2013\EATHENA2013\VCPROJ-10\MAP-SERVER_TXT\RELEASE\DUEL.OBJ
F:\WORKSPACE\EATHENA2013\EATHENA2013\VCPROJ-10\MAP-SERVER_TXT\RELEASE\GUILD.OBJ
F:\WORKSPACE\EATHENA2013\EATHENA2013\VCPROJ-10\MAP-SERVER_TXT\RELEASE\GUILD_CASTLE.OBJ
F:\WORKSPACE\EATHENA2013\EATHENA2013\VCPROJ-10\MAP-SERVER_TXT\RELEASE\GUILD_EXPCACHE.OBJ
F:\WORKSPACE\EATHENA2013\EATHENA2013\VCPROJ-10\MAP-SERVER_TXT\RELEASE\HOMUNCULUS.OBJ
F:\WORKSPACE\EATHENA2013\EATHENA2013\VCPROJ-10\MAP-SERVER_TXT\RELEASE\INSTANCE.OBJ
F:\WORKSPACE\EATHENA2013\EATHENA2013\VCPROJ-10\MAP-SERVER_TXT\RELEASE\INTIF.OBJ
F:\WORKSPACE\EATHENA2013\EATHENA2013\VCPROJ-10\MAP-SERVER_TXT\RELEASE\ITEMDB.OBJ
F:\WORKSPACE\EATHENA2013\EATHENA2013\VCPROJ-10\MAP-SERVER_TXT\RELEASE\LOG.OBJ
F:\WORKSPACE\EATHENA2013\EATHENA2013\VCPROJ-10\MAP-SERVER_TXT\RELEASE\MAIL.OBJ
F:\WORKSPACE\EATHENA2013\EATHENA2013\VCPROJ-10\MAP-SERVER_TXT\RELEASE\MAP.OBJ
F:\WORKSPACE\EATHENA2013\EATHENA2013\VCPROJ-10\MAP-SERVER_TXT\RELEASE\MAPREG_TXT.OBJ
F:\WORKSPACE\EATHENA2013\EATHENA2013\VCPROJ-10\MAP-SERVER_TXT\RELEASE\MERCENARY.OBJ
F:\WORKSPACE\EATHENA2013\EATHENA2013\VCPROJ-10\MAP-SERVER_TXT\RELEASE\MOB.OBJ
F:\WORKSPACE\EATHENA2013\EATHENA2013\VCPROJ-10\MAP-SERVER_TXT\RELEASE\NPC.OBJ
F:\WORKSPACE\EATHENA2013\EATHENA2013\VCPROJ-10\MAP-SERVER_TXT\RELEASE\NPC_CHAT.OBJ
F:\WORKSPACE\EATHENA2013\EATHENA2013\VCPROJ-10\MAP-SERVER_TXT\RELEASE\PARTY.OBJ
F:\WORKSPACE\EATHENA2013\EATHENA2013\VCPROJ-10\MAP-SERVER_TXT\RELEASE\PATH.OBJ
F:\WORKSPACE\EATHENA2013\EATHENA2013\VCPROJ-10\MAP-SERVER_TXT\RELEASE\PC.OBJ
F:\WORKSPACE\EATHENA2013\EATHENA2013\VCPROJ-10\MAP-SERVER_TXT\RELEASE\PET.OBJ
F:\WORKSPACE\EATHENA2013\EATHENA2013\VCPROJ-10\MAP-SERVER_TXT\RELEASE\QUEST.OBJ
F:\WORKSPACE\EATHENA2013\EATHENA2013\VCPROJ-10\MAP-SERVER_TXT\RELEASE\SCRIPT.OBJ
F:\WORKSPACE\EATHENA2013\EATHENA2013\VCPROJ-10\MAP-SERVER_TXT\RELEASE\SEARCHSTORE.OBJ
F:\WORKSPACE\EATHENA2013\EATHENA2013\VCPROJ-10\MAP-SERVER_TXT\RELEASE\SKILL.OBJ
F:\WORKSPACE\EATHENA2013\EATHENA2013\VCPROJ-10\MAP-SERVER_TXT\RELEASE\STATUS.OBJ
F:\WORKSPACE\EATHENA2013\EATHENA2013\VCPROJ-10\MAP-SERVER_TXT\RELEASE\STORAGE.OBJ
F:\WORKSPACE\EATHENA2013\EATHENA2013\VCPROJ-10\MAP-SERVER_TXT\RELEASE\TRADE.OBJ
F:\WORKSPACE\EATHENA2013\EATHENA2013\VCPROJ-10\MAP-SERVER_TXT\RELEASE\UNIT.OBJ
F:\WORKSPACE\EATHENA2013\EATHENA2013\VCPROJ-10\MAP-SERVER_TXT\RELEASE\VENDING.OBJ
F:\WORKSPACE\EATHENA2013\EATHENA2013\VCPROJ-10\COMMON\RELEASE\COMMON.LIB
C:\WINDOWS\GLOBALIZATION\SORTING\SORTDEFAULT.NLS
D:\PROGRAM FILES (X86)\MICROSOFT VISUAL STUDIO 10.0\VC\BIN\C2.DLL
D:\PROGRAM FILES (X86)\MICROSOFT VISUAL STUDIO 10.0\VC\BIN\1033\LINKUI.DLL
C:\WINDOWS\SYSTEM32\TZRES.DLL
