^F:\WORKSPACE\EATHENA2013\EATHENA2013\VCPROJ-10\COMMON\DEBUG\CORE.OBJ|F:\WORKSPACE\EATHENA2013\EATHENA2013\VCPROJ-10\COMMON\DEBUG\DB.OBJ|F:\WORKSPACE\EATHENA2013\EATHENA2013\VCPROJ-10\COMMON\DEBUG\DES.OBJ|F:\WORKSPACE\EATHENA2013\EATHENA2013\VCPROJ-10\COMMON\DEBUG\ERS.OBJ|F:\WORKSPACE\EATHENA2013\EATHENA2013\VCPROJ-10\COMMON\DEBUG\GRFIO.OBJ|F:\WORKSPACE\EATHENA2013\EATHENA2013\VCPROJ-10\COMMON\DEBUG\LOCK.OBJ|F:\WORKSPACE\EATHENA2013\EATHENA2013\VCPROJ-10\COMMON\DEBUG\MALLOC.OBJ|F:\WORKSPACE\EATHENA2013\EATHENA2013\VCPROJ-10\COMMON\DEBUG\MAPINDEX.OBJ|F:\WORKSPACE\EATHENA2013\EATHENA2013\VCPROJ-10\COMMON\DEBUG\MD5CALC.OBJ|F:\WORKSPACE\EATHENA2013\EATHENA2013\VCPROJ-10\COMMON\DEBUG\MT19937AR.OBJ|F:\WORKSPACE\EATHENA2013\EATHENA2013\VCPROJ-10\COMMON\DEBUG\NULLPO.OBJ|F:\WORKSPACE\EATHENA2013\EATHENA2013\VCPROJ-10\COMMON\DEBUG\PLUGINS.OBJ|F:\WORKSPACE\EATHENA2013\EATHENA2013\VCPROJ-10\COMMON\DEBUG\RANDOM.OBJ|F:\WORKSPACE\EATHENA2013\EATHENA2013\VCPROJ-10\COMMON\DEBUG\SHOWMSG.OBJ|F:\WORKSPACE\EATHENA2013\EATHENA2013\VCPROJ-10\COMMON\DEBUG\SOCKET.OBJ|F:\WORKSPACE\EATHENA2013\EATHENA2013\VCPROJ-10\COMMON\DEBUG\STRLIB.OBJ|F:\WORKSPACE\EATHENA2013\EATHENA2013\VCPROJ-10\COMMON\DEBUG\TIMER.OBJ|F:\WORKSPACE\EATHENA2013\EATHENA2013\VCPROJ-10\COMMON\DEBUG\UTILS.OBJ
/OUT:"common\Debug\common.lib" ws2_32.lib zdll.lib /LIBPATH:..\3rdparty\zlib\old\lib /NOLOGO /NODEFAULTLIB common\Debug\mt19937ar.obj
common\Debug\core.obj
common\Debug\db.obj
common\Debug\des.obj
common\Debug\ers.obj
common\Debug\grfio.obj
common\Debug\lock.obj
common\Debug\malloc.obj
common\Debug\mapindex.obj
common\Debug\md5calc.obj
common\Debug\nullpo.obj
common\Debug\plugins.obj
common\Debug\random.obj
common\Debug\showmsg.obj
common\Debug\socket.obj
common\Debug\strlib.obj
common\Debug\timer.obj
common\Debug\utils.obj /ignore:4006 /ignore:4221 
