^F:\WORKSPACE\EATHENA2013\EATHENA2013\VCPROJ-10\COMMON_SQL\RELEASE\SQL.OBJ
C:\WINDOWS\SYSTEM32\TZRES.DLL
F:\WORKSPACE\EATHENA2013\EATHENA2013\3RDPARTY\MYSQL\WIN32\LIB\LIBMYSQL.LIB
F:\WORKSPACE\EATHENA2013\EATHENA2013\VCPROJ-10\COMMON_SQL\RELEASE\SQL.OBJ
C:\WINDOWS\GLOBALIZATION\SORTING\SORTDEFAULT.NLS
