^F:\WORKSPACE\EATHENA2013\EATHENA2013\SRC\CHAR\CHAR.C
F:\WORKSPACE\EATHENA2013\EATHENA2013\VCPROJ-10\CHAR-SERVER_TXT\RELEASE\VC100.PDB
^F:\WORKSPACE\EATHENA2013\EATHENA2013\SRC\CHAR\INT_GUILD.C
F:\WORKSPACE\EATHENA2013\EATHENA2013\VCPROJ-10\CHAR-SERVER_TXT\RELEASE\VC100.PDB
^F:\WORKSPACE\EATHENA2013\EATHENA2013\SRC\CHAR\INT_HOMUN.C
F:\WORKSPACE\EATHENA2013\EATHENA2013\VCPROJ-10\CHAR-SERVER_TXT\RELEASE\VC100.PDB
^F:\WORKSPACE\EATHENA2013\EATHENA2013\SRC\CHAR\INT_PARTY.C
F:\WORKSPACE\EATHENA2013\EATHENA2013\VCPROJ-10\CHAR-SERVER_TXT\RELEASE\VC100.PDB
^F:\WORKSPACE\EATHENA2013\EATHENA2013\SRC\CHAR\INT_PET.C
F:\WORKSPACE\EATHENA2013\EATHENA2013\VCPROJ-10\CHAR-SERVER_TXT\RELEASE\VC100.PDB
^F:\WORKSPACE\EATHENA2013\EATHENA2013\SRC\CHAR\INT_STATUS.C
F:\WORKSPACE\EATHENA2013\EATHENA2013\VCPROJ-10\CHAR-SERVER_TXT\RELEASE\VC100.PDB
^F:\WORKSPACE\EATHENA2013\EATHENA2013\SRC\CHAR\INT_STORAGE.C
F:\WORKSPACE\EATHENA2013\EATHENA2013\VCPROJ-10\CHAR-SERVER_TXT\RELEASE\VC100.PDB
^F:\WORKSPACE\EATHENA2013\EATHENA2013\SRC\CHAR\INTER.C
F:\WORKSPACE\EATHENA2013\EATHENA2013\VCPROJ-10\CHAR-SERVER_TXT\RELEASE\VC100.PDB
