^F:\WORKSPACE\EATHENA2013\EATHENA2013\SRC\LOGIN\ACCOUNT_TXT.C
/c /I..\src\common /I..\3rdparty\msinttypes\include /Zi /nologo /W3 /WX- /MP /O2 /Oy- /GL /D WIN32 /D NDEBUG /D WITH_TXT /D _MBCS /Gm- /EHsc /MT /GS /fp:precise /Zc:wchar_t /Zc:forScope /Fo"login-server_txt\Release\\" /Fd"login-server_txt\Release\vc100.pdb" /Gd /TC /wd4100 /wd4800 /wd4996 /FIconfig.vc.h /analyze- /errorReport:prompt F:\WORKSPACE\EATHENA2013\EATHENA2013\SRC\LOGIN\ACCOUNT_TXT.C
^F:\WORKSPACE\EATHENA2013\EATHENA2013\SRC\LOGIN\IPBAN_TXT.C
/c /I..\src\common /I..\3rdparty\msinttypes\include /Zi /nologo /W3 /WX- /MP /O2 /Oy- /GL /D WIN32 /D NDEBUG /D WITH_TXT /D _MBCS /Gm- /EHsc /MT /GS /fp:precise /Zc:wchar_t /Zc:forScope /Fo"login-server_txt\Release\\" /Fd"login-server_txt\Release\vc100.pdb" /Gd /TC /wd4100 /wd4800 /wd4996 /FIconfig.vc.h /analyze- /errorReport:prompt F:\WORKSPACE\EATHENA2013\EATHENA2013\SRC\LOGIN\IPBAN_TXT.C
^F:\WORKSPACE\EATHENA2013\EATHENA2013\SRC\LOGIN\LOGIN.C
/c /I..\src\common /I..\3rdparty\msinttypes\include /Zi /nologo /W3 /WX- /MP /O2 /Oy- /GL /D WIN32 /D NDEBUG /D WITH_TXT /D _MBCS /Gm- /EHsc /MT /GS /fp:precise /Zc:wchar_t /Zc:forScope /Fo"login-server_txt\Release\\" /Fd"login-server_txt\Release\vc100.pdb" /Gd /TC /wd4100 /wd4800 /wd4996 /FIconfig.vc.h /analyze- /errorReport:prompt F:\WORKSPACE\EATHENA2013\EATHENA2013\SRC\LOGIN\LOGIN.C
^F:\WORKSPACE\EATHENA2013\EATHENA2013\SRC\LOGIN\LOGINLOG_TXT.C
/c /I..\src\common /I..\3rdparty\msinttypes\include /Zi /nologo /W3 /WX- /MP /O2 /Oy- /GL /D WIN32 /D NDEBUG /D WITH_TXT /D _MBCS /Gm- /EHsc /MT /GS /fp:precise /Zc:wchar_t /Zc:forScope /Fo"login-server_txt\Release\\" /Fd"login-server_txt\Release\vc100.pdb" /Gd /TC /wd4100 /wd4800 /wd4996 /FIconfig.vc.h /analyze- /errorReport:prompt F:\WORKSPACE\EATHENA2013\EATHENA2013\SRC\LOGIN\LOGINLOG_TXT.C
