^F:\WORKSPACE\EATHENA2013\EATHENA2013\SRC\LOGIN\ACCOUNT_TXT.C
F:\WORKSPACE\EATHENA2013\EATHENA2013\VCPROJ-10\LOGIN-SERVER_TXT\RELEASE\VC100.PDB
^F:\WORKSPACE\EATHENA2013\EATHENA2013\SRC\LOGIN\IPBAN_TXT.C
F:\WORKSPACE\EATHENA2013\EATHENA2013\VCPROJ-10\LOGIN-SERVER_TXT\RELEASE\VC100.PDB
^F:\WORKSPACE\EATHENA2013\EATHENA2013\SRC\LOGIN\LOGIN.C
F:\WORKSPACE\EATHENA2013\EATHENA2013\VCPROJ-10\LOGIN-SERVER_TXT\RELEASE\VC100.PDB
^F:\WORKSPACE\EATHENA2013\EATHENA2013\SRC\LOGIN\LOGINLOG_TXT.C
F:\WORKSPACE\EATHENA2013\EATHENA2013\VCPROJ-10\LOGIN-SERVER_TXT\RELEASE\VC100.PDB
